{
  '4906': {
    '1547188200.0': [
      '25.10',
      '417',
      '5184'
    ]
  },
  '3491': {
    '1547188200.0': [
      '76.20',
      '17',
      '245'
    ]
  },
  '3704': {
    '1547188200.0': [
      '14.20',
      '175',
      '3865'
    ]
  },
  '3363': {
    '1547188200.0': [
      '31.95',
      '168',
      '2733'
    ]
  },
  '3596': {
    '1547188200.0': [
      '75.60',
      '222',
      '2622'
    ]
  },
  '2382': {
    '1547188200.0': [
      '53.20',
      '471',
      '7085'
    ]
  },
  '2059': {
    '1547188200.0': [
      '349.00',
      '8',
      '318'
    ]
  },
  '2314': {
    '1547188200.0': [
      '19.70',
      '68',
      '1335'
    ]
  },
  '3163': {
    '1547188200.0': [
      '45.80',
      '254',
      '3779'
    ]
  },
  '3081': {
    '1547188200.0': [
      '263.00',
      '92',
      '1075'
    ]
  },
  '5349': {
    '1547188200.0': [
      '32.70',
      '294',
      '3787'
    ]
  },
  '3682': {
    '1547188200.0': [
      '7.01',
      '130',
      '2922'
    ]
  },
  '4977': {
    '1547188200.0': [
      '82.10',
      '124',
      '1946'
    ]
  },
  '5274': {
    '1547188200.0': [
      '554.00',
      '47',
      '554'
    ]
  },
  '3045': {
    '1547188200.0': [
      '108.50',
      '336',
      '7266'
    ]
  },
  '5388': {
    '1547188200.0': [
      '64.90',
      '125',
      '1800'
    ]
  },
  '2356': {
    '1547188200.0': [
      '22.60',
      '838',
      '7625'
    ]
  },
  '2412': {
    '1547188200.0': [
      '107.00',
      '972',
      '6796'
    ]
  },
  '2454': {
    '1547188200.0': [
      '227.50',
      '261',
      '2009'
    ]
  },
  '3419': {
    '1547188200.0': [
      '17.50',
      '92',
      '1250'
    ]
  }
}
